[
  {
    "pk": 1, 
    "model": "auth.user", 
    "fields": {
      "username": "polinom", 
      "first_name": "", 
      "last_name": "", 
      "is_active": true, 
      "is_superuser": true, 
      "is_staff": true, 
      "last_login": "2013-03-20T03:21:35.563Z", 
      "groups": [], 
      "user_permissions": [], 
      "password": "pbkdf2_sha256$10000$uI0j4j6k6mPG$eNYcWtjEKYCOgiAlWn7rypJG85jwq3TUKeLln7sJlxE=", 
      "email": "polinom100@gmail.com", 
      "date_joined": "2013-03-19T18:56:42.158Z"
    }
  }, 
  {
    "pk": 2, 
    "model": "auth.user", 
    "fields": {
      "username": "petya", 
      "first_name": "", 
      "last_name": "", 
      "is_active": true, 
      "is_superuser": false, 
      "is_staff": false, 
      "last_login": "2013-03-19T18:57:28.702Z", 
      "groups": [], 
      "user_permissions": [], 
      "password": "pbkdf2_sha256$10000$UHkoUwiJ1LOr$Oy6IuQM1RdZn7LQlk6tS06x+h2YS+S3U6KCHC57V68s=", 
      "email": "petya@gmail.com", 
      "date_joined": "2013-03-19T18:57:28.233Z"
    }
  }, 
  {
    "pk": 3, 
    "model": "auth.user", 
    "fields": {
      "username": "vasya", 
      "first_name": "", 
      "last_name": "", 
      "is_active": true, 
      "is_superuser": false, 
      "is_staff": false, 
      "last_login": "2013-03-19T18:58:01.179Z", 
      "groups": [], 
      "user_permissions": [], 
      "password": "pbkdf2_sha256$10000$irhTnwtKlrWs$iJTXlEyUxyqsOFCjIelxW2X/mUNYLSPcl6lzFgp9X7Q=", 
      "email": "vasya@gmail.com", 
      "date_joined": "2013-03-19T18:58:01.021Z"
    }
  }, 
  {
    "pk": 4, 
    "model": "auth.user", 
    "fields": {
      "username": "MrHopkins", 
      "first_name": "", 
      "last_name": "", 
      "is_active": true, 
      "is_superuser": false, 
      "is_staff": false, 
      "last_login": "2013-03-20T03:19:07.760Z", 
      "groups": [], 
      "user_permissions": [], 
      "password": "pbkdf2_sha256$10000$rHsWXdkiZBSl$31fwo5NKMzWNp7Yso1vA5oXwsmuuEB/9sqiRwSFqKBo=", 
      "email": "hopkins@gmail.com", 
      "date_joined": "2013-03-20T03:19:06.596Z"
    }
  }
]